{"customers":[{"CardCode":"CA000838","CardName":"ST. RAPHAEL ARCHANGEL PARISH MULTIPURPOSE COOPERATIVE","Phone1":null,"City":null,"ytd_revenue":111238710.85,"ytd_bags":45445,"ytd_volume":2087.275,"last_order_date":"2026-02-18T00:00:00.000Z"},{"CardCode":"CA000811","CardName":"ROY TOPAZE OGIS LECHON MANOK","Phone1":null,"City":null,"ytd_revenue":95590290,"ytd_bags":33530,"ytd_volume":1674.8,"last_order_date":"2026-04-15T00:00:00.000Z"},{"CardCode":"CA000196","CardName":"FALCOR MARKETING CORPORATION","Phone1":null,"City":null,"ytd_revenue":77582261.053,"ytd_bags":45216,"ytd_volume":2169.765,"last_order_date":"2026-04-16T00:00:00.000Z"},{"CardCode":"CA000818","CardName":"SAO FEEDS TRADING","Phone1":null,"City":null,"ytd_revenue":76768778.191,"ytd_bags":48512,"ytd_volume":2343.23,"last_order_date":"2026-04-15T00:00:00.000Z"},{"CardCode":"CA000123","CardName":"CAVALIER AGRIVET SUPPLY","Phone1":null,"City":null,"ytd_revenue":71192402.85,"ytd_bags":33367,"ytd_volume":1590.95,"last_order_date":"2026-04-16T00:00:00.000Z"},{"CardCode":"CA000900","CardName":"CATHAY FARMS DEVELOPMENT INCORPORATED","Phone1":null,"City":null,"ytd_revenue":67108062.97,"ytd_bags":44001,"ytd_volume":2051.825,"last_order_date":"2026-04-07T00:00:00.000Z"},{"CardCode":"CA000075","CardName":"ARACO POULTRY & LIVESTOCK CORPORATION","Phone1":null,"City":null,"ytd_revenue":56264746,"ytd_bags":14983,"ytd_volume":749.15,"last_order_date":"2026-04-16T00:00:00.000Z"},{"CardCode":"CA000237","CardName":"GREENHILLS FARM INC.","Phone1":null,"City":null,"ytd_revenue":53332822.5,"ytd_bags":30388,"ytd_volume":1467.875,"last_order_date":"2026-04-17T00:00:00.000Z"},{"CardCode":"CA000366","CardName":"FAITH AGRIVET TRADING","Phone1":"0956-061-7707/0956-061-7707","City":null,"ytd_revenue":48935280.76,"ytd_bags":23111,"ytd_volume":1120.47,"last_order_date":"2026-04-14T00:00:00.000Z"},{"CardCode":"CA000107","CardName":"BREEDERS AGRIVET SUPPLIES, INC.","Phone1":null,"City":null,"ytd_revenue":46994520.58,"ytd_bags":0,"ytd_volume":0,"last_order_date":"2026-01-01T00:00:00.000Z"},{"CardCode":"CA000348","CardName":"MAG-UUMA AGRI & POULTRY SUPPLY","Phone1":null,"City":null,"ytd_revenue":39577261.201,"ytd_bags":21641,"ytd_volume":1031.39,"last_order_date":"2026-04-16T00:00:00.000Z"},{"CardCode":"CA000186","CardName":"ENTHEOS FARM","Phone1":null,"City":null,"ytd_revenue":39332219.9,"ytd_bags":25017,"ytd_volume":1250.85,"last_order_date":"2026-04-16T00:00:00.000Z"},{"CardCode":"CA000260","CardName":"J & B AGRIVET SUPPLY","Phone1":null,"City":null,"ytd_revenue":38663859.5,"ytd_bags":19551,"ytd_volume":895.975,"last_order_date":"2026-04-16T00:00:00.000Z"},{"CardCode":"CA000144","CardName":"CYROWZE AGRIVET SUPPLY AND GENERAL MERCHANDISE","Phone1":null,"City":null,"ytd_revenue":37976752.3,"ytd_bags":23328,"ytd_volume":1110.849,"last_order_date":"2026-04-16T00:00:00.000Z"},{"CardCode":"CA000787","CardName":"RCD 3 RICE AND CORN TRADING","Phone1":null,"City":null,"ytd_revenue":35524374.3,"ytd_bags":21278,"ytd_volume":1000.9,"last_order_date":"2026-04-15T00:00:00.000Z"},{"CardCode":"CA000245","CardName":"HBO VENTURES,INC.","Phone1":null,"City":null,"ytd_revenue":34749626.686,"ytd_bags":21634,"ytd_volume":1021.37,"last_order_date":"2026-04-16T00:00:00.000Z"},{"CardCode":"CA000282","CardName":"JEFPHERLYN FEEDS SUPPLY","Phone1":null,"City":null,"ytd_revenue":32196370,"ytd_bags":18047,"ytd_volume":902.35,"last_order_date":"2026-04-15T00:00:00.000Z"},{"CardCode":"CA000031","CardName":"AGRILIFE AGRIVET SUPPLIES, OPC./MANGAGOY","Phone1":null,"City":null,"ytd_revenue":31089794.54,"ytd_bags":12608,"ytd_volume":599.135,"last_order_date":"2026-04-13T00:00:00.000Z"},{"CardCode":"CA000876","CardName":"WOODLANDS FARMS","Phone1":null,"City":null,"ytd_revenue":24372543.75,"ytd_bags":6347,"ytd_volume":317.35,"last_order_date":"2026-04-16T00:00:00.000Z"},{"CardCode":"CA000104","CardName":"BLUE THUNDER AGRIVET SUPPLY","Phone1":null,"City":null,"ytd_revenue":24274977.082,"ytd_bags":14244,"ytd_volume":682.875,"last_order_date":"2026-04-16T00:00:00.000Z"},{"CardCode":"CA000341","CardName":"LUNTIAN MULTI-PURPOSE COOPERATIVE","Phone1":null,"City":null,"ytd_revenue":20830500,"ytd_bags":17537,"ytd_volume":438.425,"last_order_date":"2026-04-15T00:00:00.000Z"},{"CardCode":"CA000805","CardName":"ROGUELS TRADING","Phone1":null,"City":null,"ytd_revenue":20719181.54,"ytd_bags":12010,"ytd_volume":564.175,"last_order_date":"2026-04-15T00:00:00.000Z"},{"CardCode":"CA000668","CardName":"PACIFICA AGRIVET SUPPLIES,INC./POLOMOLOK-FRENCH","Phone1":null,"City":null,"ytd_revenue":20524036.72,"ytd_bags":10749,"ytd_volume":514.1,"last_order_date":"2026-04-16T00:00:00.000Z"},{"CardCode":"CA000821","CardName":"SCRS VETERINARY TRADING","Phone1":null,"City":null,"ytd_revenue":19387245.07,"ytd_bags":0,"ytd_volume":0,"last_order_date":"2026-01-01T00:00:00.000Z"},{"CardCode":"CA000317","CardName":"KIYAH'S POULTRY SUPPLY","Phone1":"09268803433/09268803433","City":null,"ytd_revenue":18717669.07,"ytd_bags":10268,"ytd_volume":481.1,"last_order_date":"2026-04-14T00:00:00.000Z"},{"CardCode":"CA000125","CardName":"CCPC","Phone1":null,"City":null,"ytd_revenue":18039944.82,"ytd_bags":2029,"ytd_volume":81.16,"last_order_date":"2026-04-16T00:00:00.000Z"},{"CardCode":"CA000760","CardName":"PREMIER PLATINUM AGRI. RESOURCE CORP.","Phone1":null,"City":null,"ytd_revenue":18029821.25,"ytd_bags":0,"ytd_volume":0,"last_order_date":"2026-01-01T00:00:00.000Z"},{"CardCode":"CA000326","CardName":"LB POULTRY SUPPLY","Phone1":null,"City":null,"ytd_revenue":17109808.108,"ytd_bags":10103,"ytd_volume":501.175,"last_order_date":"2026-04-16T00:00:00.000Z"},{"CardCode":"CA000883","CardName":"YUL AGRIVET SUPPLY","Phone1":null,"City":null,"ytd_revenue":16468661.21,"ytd_bags":8611,"ytd_volume":397.15,"last_order_date":"2026-04-14T00:00:00.000Z"},{"CardCode":"CA000029","CardName":"AGRILIFE AGRIVET SUPPLIES, OPC./MABINI","Phone1":null,"City":null,"ytd_revenue":16415268.026,"ytd_bags":7152,"ytd_volume":338.752,"last_order_date":"2026-04-14T00:00:00.000Z"},{"CardCode":"CA000772","CardName":"PUTING MANOK CORP.","Phone1":null,"City":null,"ytd_revenue":16263870,"ytd_bags":5490,"ytd_volume":274.5,"last_order_date":"2026-04-16T00:00:00.000Z"},{"CardCode":"CA000344","CardName":"M.J.'S AGRIVET & GENERAL MERCHANDISE-CEBU CENTRAL","Phone1":null,"City":null,"ytd_revenue":15839467.956,"ytd_bags":5808,"ytd_volume":272.57,"last_order_date":"2026-04-16T00:00:00.000Z"},{"CardCode":"CA000110","CardName":"BUTUAN RD AGRO INDUSTRIAL FARM DEVELOPMENT CORP.","Phone1":null,"City":null,"ytd_revenue":15503890,"ytd_bags":9048,"ytd_volume":452.4,"last_order_date":"2026-04-13T00:00:00.000Z"},{"CardCode":"CA000393","CardName":"MPQ AGRO VENTURES INC,","Phone1":null,"City":null,"ytd_revenue":15090405,"ytd_bags":0,"ytd_volume":0,"last_order_date":"2026-01-01T00:00:00.000Z"},{"CardCode":"CA000266","CardName":"JAIRAH FARM","Phone1":null,"City":null,"ytd_revenue":14208560,"ytd_bags":310,"ytd_volume":15.5,"last_order_date":"2026-01-29T00:00:00.000Z"},{"CardCode":"CA000242","CardName":"H3 AGRICULTURAL SUPPLY","Phone1":null,"City":null,"ytd_revenue":14103590.91,"ytd_bags":8834,"ytd_volume":425.475,"last_order_date":"2026-04-10T00:00:00.000Z"},{"CardCode":"CA000370","CardName":"MENIANO RICE AND FEEDS TRADING","Phone1":null,"City":null,"ytd_revenue":13810787.21,"ytd_bags":8806,"ytd_volume":423.325,"last_order_date":"2026-04-17T00:00:00.000Z"},{"CardCode":"CA000026","CardName":"AGRILIFE AGRIVET SUPPLIES, OPC./GUIUAN","Phone1":null,"City":null,"ytd_revenue":13703598.506,"ytd_bags":5227,"ytd_volume":246.265,"last_order_date":"2026-04-14T00:00:00.000Z"},{"CardCode":"CA000301","CardName":"JONATHAN YOUNG","Phone1":null,"City":null,"ytd_revenue":13605884.96,"ytd_bags":7338,"ytd_volume":328.25,"last_order_date":"2026-04-14T00:00:00.000Z"},{"CardCode":"CA000164","CardName":"DR. TOMAS AGRIVET","Phone1":"09510857789/09510857789","City":null,"ytd_revenue":13244162.74,"ytd_bags":7183,"ytd_volume":340.525,"last_order_date":"2026-03-25T00:00:00.000Z"},{"CardCode":"CA000167","CardName":"DUMAGUETE ACME TRADERS, INC.","Phone1":"035-422-2570/035-422-2570","City":null,"ytd_revenue":12233095.78,"ytd_bags":5258,"ytd_volume":250.525,"last_order_date":"2026-04-14T00:00:00.000Z"},{"CardCode":"CA000779","CardName":"R. MENDEZ AGRICULTURAL SUPPLY","Phone1":null,"City":null,"ytd_revenue":12087525.99,"ytd_bags":7541,"ytd_volume":351.5,"last_order_date":"2026-04-16T00:00:00.000Z"},{"CardCode":"CA000018","CardName":"AGRILIFE AGRIVET SUPPLIES, OPC.","Phone1":null,"City":null,"ytd_revenue":12012744.89,"ytd_bags":0,"ytd_volume":0,"last_order_date":"2026-01-01T00:00:00.000Z"},{"CardCode":"CA000345","CardName":"M.J.'S AGRIVET & GENERAL MERCHANDISE-CEBU NORTH","Phone1":null,"City":null,"ytd_revenue":11813546.96,"ytd_bags":3945,"ytd_volume":179.65,"last_order_date":"2026-04-15T00:00:00.000Z"},{"CardCode":"CA000201","CardName":"FARM AID AGRIVET TRADING","Phone1":null,"City":null,"ytd_revenue":11769586.01,"ytd_bags":7371,"ytd_volume":346.729,"last_order_date":"2026-04-11T00:00:00.000Z"},{"CardCode":"CA000875","CardName":"WISE HARVEST FEEDS & AGRO SUPPLY","Phone1":null,"City":null,"ytd_revenue":11553247.5,"ytd_bags":6603,"ytd_volume":308.525,"last_order_date":"2026-03-21T00:00:00.000Z"},{"CardCode":"CA000268","CardName":"JAM AGRIVET SUPPLY","Phone1":null,"City":null,"ytd_revenue":11346578.14,"ytd_bags":6626,"ytd_volume":300.475,"last_order_date":"2026-04-16T00:00:00.000Z"},{"CardCode":"CA000134","CardName":"COLLANTES AGRI SUPPLIES STORE","Phone1":null,"City":"ZONE 4 SOOC LUPI CAMARINES SUR","ytd_revenue":11283496.015,"ytd_bags":6916,"ytd_volume":314.366,"last_order_date":"2026-04-13T00:00:00.000Z"},{"CardCode":"CA000141","CardName":"CRISTAL LIVESTOCK & AGRICULTURAL PRODUCTS TRADING INC.","Phone1":null,"City":null,"ytd_revenue":11212246.55,"ytd_bags":6190,"ytd_volume":309.5,"last_order_date":"2026-04-16T00:00:00.000Z"},{"CardCode":"CA000008","CardName":"A2Z AGRIVET SUPPLY","Phone1":null,"City":null,"ytd_revenue":11171023.45,"ytd_bags":5453,"ytd_volume":250.263,"last_order_date":"2026-04-10T00:00:00.000Z"}],"total":1382,"page":1,"pages":28}